{
  "runtimeOptions": {
    "tfm": "net6.0",
    "rollForward": "LatestPatch",
    "framework": {
      "name": "Microsoft.NETCore.App",
      "version": "6.0.4"
    },
    "configProperties": {
      "System.Reflection.Metadata.MetadataUpdater.IsSupported": false
    }
  }
}